Chapter 4 Exploratory Data Analysis (EDA) | Usefulness of R for managing data
…
penguins <- penguins %>% 
  rename_with(tolower) %>%  # lower-case every column
  rename_with(toupper, starts_with('ID')) %>% # up-case column starting with "ID"
  rename_with(~gsub(" ", "_", .x))  %>% # subs every space (" ") with no space ("_")
  rename_with(~gsub("\\(", "", .x)) %>%  #removes every "("
  rename_with(~gsub("\\)", "", .x))  %>% # removes every ")"
  rename_with(~gsub("/" ,"", .x))  # removes /

We could also skip a few things and be less specific, but instead use only the following function from the “janitor” package

penguins %>% 
  janitor::clean_names()

## # A tibble: 344 × 17
##    studyn…¹ sampl…² species region island stage id    clutc…³ date_egg   culme…⁴
##    <chr>      <dbl> <chr>   <chr>  <chr>  <chr> <chr> <chr>   <date>       <dbl>
##  1 PAL0708        1 Adelie… Anvers Torge… Adul… N1A1  Yes     2007-11-11    39.1
##  2 PAL0708        2 Adelie… Anvers Torge… Adul… N1A2  Yes     2007-11-11    39.5
##  3 PAL0708        3 Adelie… Anvers Torge… Adul… N2A1  Yes     2007-11-16    40.3
##  4 PAL0708        4 Adelie… Anvers Torge… Adul… N2A2  Yes     2007-11-16    NA  
##  5 PAL0708        5 Adelie… Anvers Torge… Adul… N3A1  Yes     2007-11-16    36.7
##  6 PAL0708        6 Adelie… Anvers Torge… Adul… N3A2  Yes     2007-11-16    39.3
##  7 PAL0708        7 Adelie… Anvers Torge… Adul… N4A1  No      2007-11-15    38.9
##  8 PAL0708        8 Adelie… Anvers Torge… Adul… N4A2  No      2007-11-15    39.2
##  9 PAL0708        9 Adelie… Anvers Torge… Adul… N5A1  Yes     2007-11-09    34.1
## 10 PAL0708       10 Adelie… Anvers Torge… Adul… N5A2  Yes     2007-11-09    42  
## # … with 334 more rows, 7 more variables: culmen_depth_mm <dbl>,
## #   flipper_length_mm <dbl>, body_mass_g <dbl>, sex <chr>,
## #   delta_15_n_ooo <dbl>, delta_13_c_ooo <dbl>, comments <chr>, and abbreviated
## #   variable names ¹​studyname, ²​sample_number, ³​clutch_completion,
## #   ⁴​culmen_length_mm
…
