Chapter 3 R - Dealing with data | Usefulness of R for managing data
…
Lastly, you can use ungroup() in a pipe to remove the grouping that you’ve did, if you want to execute commands over the “ungrouped” data.
This is very rarely used, at least by me.
However, in certain cases it might be useful.
Here’s an example, where I want to center the variable Sepal.Length, but I want to do so considering the species it belongs to.

df %>% 
  group_by(Species) %>%  # grouping by species
  mutate(Sepal.Width = as.numeric(Sepal.Width),
         Speal.Length = as.numeric(Sepal.Length)) %>% 
  mutate(MeanPerSpecie = mean(Sepal.Width),  # creates mean by species
         CenteredWidth = Sepal.Width - mean(Sepal.Width)) %>%   # subtracts the mean (of the corresponding specie).
  select(Species, Sepal.Width, MeanPerSpecie, CenteredWidth) %>% 
  ungroup()  # remove grouping in case i want to do more mutates, but now NOT considering the groups of species.

## # A tibble: 151 x 4
##    Species Sepal.Width MeanPerSpecie CenteredWidth
##    <fct>         <dbl>         <dbl>         <dbl>
##  1 setosa          3.5          3.40       0.0980 
##  2 setosa          3            3.40      -0.402  
##  3 setosa          3.2          3.40      -0.202  
##  4 setosa          3.1          3.40      -0.302  
##  5 setosa          3.6          3.40       0.198  
##  6 setosa          3.9          3.40       0.498  
##  7 setosa          3.4          3.40      -0.00196
##  8 setosa          3.4          3.40      -0.00196
##  9 setosa          2.9          3.40      -0.502  
## 10 setosa          3.1          3.40      -0.302  
## # ... with 141 more rows
…
df %>% 
  group_split(Species)

## <list_of<
##   tbl_df<
##     Sepal.Length: double
##     Sepal.Width : character
##     Petal.Length: character
##     Petal.Width : character
##     Species     : factor<fb977>
##   >
## >[3]>
## [[1]]
## # A tibble: 51 x 5
##    Sepal.Length Sepal.Width Petal.Length Petal.Width Species
##           <dbl> <chr>       <chr>        <chr>       <fct>  
##  1          5.1 3.5         1.4          0.2         setosa 
##  2          4.9 3           1.4          0.2         setosa 
##  3          4.7 3.2         1.3          0.2         setosa 
##  4          4.6 3.1         1.5          0.2         setosa 
##  5          5   3.6         1.4          0.2         setosa 
##  6          5.4 3.9         1.7          0.4         setosa 
##  7          4.6 3.4         1.4          0.3         setosa 
##  8          5   3.4         1.5          0.2         setosa 
##  9          4.4 2.9         1.4          0.2         setosa 
## 10          4.9 3.1         1.5          0.1         setosa 
## # ... with 41 more rows
## 
## [[2]]
## # A tibble: 50 x 5
##    Sepal.Length Sepal.Width Petal.Length Petal.Width Species   
##           <dbl> <chr>       <chr>        <chr>       <fct>     
##  1          7   3.2         4.7          1.4         versicolor
##  2          6.4 3.2         4.5          1.5         versicolor
##  3          6.9 3.1         4.9          1.5         versicolor
##  4          5.5 2.3         4            1.3         versicolor
##  5          6.5 2.8         4.6          1.5         versicolor
##  6          5.7 2.8         4.5          1.3         versicolor
##  7          6.3 3.3         4.7          1.6         versicolor
##  8          4.9 2.4         3.3          1           versicolor
##  9          6.6 2.9         4.6          1.3         versicolor
## 10          5.2 2.7         3.9          1.4         versicolor
## # ... with 40 more rows
## 
## [[3]]
## # A tibble: 50 x 5
##    Sepal.Length Sepal.Width Petal.Length Petal.Width Species  
##           <dbl> <chr>       <chr>        <chr>       <fct>    
##  1          6.3 3.3         6            2.5         virginica
##  2          5.8 2.7         5.1          1.9         virginica
##  3          7.1 3           5.9          2.1         virginica
##  4          6.3 2.9         5.6          1.8         virginica
##  5          6.5 3           5.8          2.2         virginica
##  6          7.6 3           6.6          2.1         virginica
##  7          4.9 2.5         4.5          1.7         virginica
##  8          7.3 2.9         6.3          1.8         virginica
##  9          6.7 2.5         5.8          1.8         virginica
## 10          7.2 3.6         6.1          2.5         virginica
## # ... with 40 more rows
…
